{
  "El Español": {
    "domain": "elespanol.com",
    "allow_cookies": 1,
    "block_regex": "cdn\\.ampproject\\.org\\/v\\d\\/amp-(access|subscriptions)-.+\\.js",
    "cs_code": [{
        "cond": "div.full-suscriptor-container",
        "rm_elem": 1
      }
    ]
  }
}
